<?xml version="1.0" encoding="UTF-8" standalone="no"?>
<svg
   xmlns:dc="http://purl.org/dc/elements/1.1/"
   xmlns:cc="http://creativecommons.org/ns#"
   xmlns:rdf="http://www.w3.org/1999/02/22-rdf-syntax-ns#"
   xmlns:svg="http://www.w3.org/2000/svg"
   xmlns="http://www.w3.org/2000/svg"
   xmlns:xlink="http://www.w3.org/1999/xlink"
   xmlns:sodipodi="http://sodipodi.sourceforge.net/DTD/sodipodi-0.dtd"
   xmlns:inkscape="http://www.inkscape.org/namespaces/inkscape"
   width="42"
   height="42"
   viewBox="0 0 42 42"
   version="1.1"
   id="svg14"
   sodipodi:docname="Эллипс_6.svg"
   inkscape:version="0.92.3 (d244b95, 2018-08-02)">
  <metadata
     id="metadata18">
    <rdf:RDF>
      <cc:Work
         rdf:about="">
        <dc:format>image/svg+xml</dc:format>
        <dc:type
           rdf:resource="http://purl.org/dc/dcmitype/StillImage" />
      </cc:Work>
    </rdf:RDF>
  </metadata>
  <sodipodi:namedview
     pagecolor="#ffffff"
     bordercolor="#666666"
     borderopacity="1"
     objecttolerance="10"
     gridtolerance="10"
     guidetolerance="10"
     inkscape:pageopacity="0"
     inkscape:pageshadow="2"
     inkscape:window-width="1865"
     inkscape:window-height="1025"
     id="namedview16"
     showgrid="false"
     inkscape:zoom="3.9732667"
     inkscape:cx="-46.213995"
     inkscape:cy="17.518207"
     inkscape:window-x="55"
     inkscape:window-y="27"
     inkscape:window-maximized="1"
     inkscape:current-layer="svg14" />
  <defs
     id="defs6">
    <path
       id="jvura"
       d="M1339 697a21 21 0 1 1 0 42 21 21 0 0 1 0-42z" />
    <clipPath
       id="jvurb">
      <use
         fill="#fff"
         xlink:href="#jvura"
         id="use3" />
    </clipPath>
  </defs>
  <g
     id="g12">
    <g
       transform="translate(-1318,-697)"
       id="g10">
      <use
         stroke-miterlimit="50"
         clip-path="url(#jvurb)"
         xlink:href="#jvura"
         id="use8"
         style="fill:#ffffff;fill-opacity:0;stroke:#f07f3c;stroke-width:4;stroke-miterlimit:50"
         x="0"
         y="0"
         width="100%"
         height="100%" />
    </g>
  </g>
  <g
     aria-label="%"
     style="font-style:normal;font-variant:normal;font-weight:bold;font-stretch:normal;font-size:21.23416519px;line-height:1.25;font-family:Muller;-inkscape-font-specification:'Muller Bold';letter-spacing:0px;word-spacing:0px;fill:#f07f3c;fill-opacity:1;stroke:none;stroke-width:1"
     id="text4762">
    <path
       d="m 17.76179,29.706007 h -2.123416 l 8.684773,-17.412015 h 2.123417 z m 0.658259,-15.458472 q 1.104177,0.955537 1.104177,2.675505 0,1.719967 -1.104177,2.696739 -1.104176,0.955537 -2.717973,0.955537 -1.635031,0 -2.760441,-0.955537 -1.104177,-0.976772 -1.104177,-2.696739 0,-1.719968 1.104177,-2.675505 1.12541,-0.976772 2.760441,-0.976772 1.613797,0 2.717973,0.976772 z m -3.843384,1.635031 q -0.36098,0.424683 -0.36098,1.040474 0,0.615791 0.36098,1.040474 0.382215,0.424683 1.125411,0.424683 0.700728,0 1.061708,-0.424683 0.382215,-0.424683 0.382215,-1.040474 0,-0.615791 -0.382215,-1.040474 -0.36098,-0.424684 -1.061708,-0.424684 -0.743196,0 -1.125411,0.424684 z m 14.481701,6.518888 q 1.104177,0.955538 1.104177,2.675505 0,1.719968 -1.104177,2.696739 -1.104177,0.955538 -2.717973,0.955538 -1.635031,0 -2.760442,-0.955538 -1.104176,-0.976771 -1.104176,-2.696739 0,-1.719967 1.104176,-2.675505 1.125411,-0.976771 2.760442,-0.976771 1.613796,0 2.717973,0.976771 z m -3.843384,1.635031 q -0.360981,0.424683 -0.360981,1.040474 0,0.615791 0.360981,1.040474 0.382215,0.424684 1.125411,0.424684 0.700727,0 1.061708,-0.424684 0.382215,-0.424683 0.382215,-1.040474 0,-0.615791 -0.382215,-1.040474 -0.360981,-0.424683 -1.061708,-0.424683 -0.743196,0 -1.125411,0.424683 z"
       style="stroke-width:1"
       id="path4775"
       inkscape:connector-curvature="0" />
  </g>
</svg>
