<?xml version="1.0" encoding="UTF-8" standalone="no"?>
<svg
   xmlns:dc="http://purl.org/dc/elements/1.1/"
   xmlns:cc="http://creativecommons.org/ns#"
   xmlns:rdf="http://www.w3.org/1999/02/22-rdf-syntax-ns#"
   xmlns:svg="http://www.w3.org/2000/svg"
   xmlns="http://www.w3.org/2000/svg"
   xmlns:xlink="http://www.w3.org/1999/xlink"
   xmlns:sodipodi="http://sodipodi.sourceforge.net/DTD/sodipodi-0.dtd"
   xmlns:inkscape="http://www.inkscape.org/namespaces/inkscape"
   width="15.027911"
   height="10.016176"
   viewBox="0 0 15.027911 10.016176"
   version="1.1"
   id="svg11"
   sodipodi:docname="icon-up.svg"
   inkscape:version="0.92.3 (d244b95, 2018-08-02)">
  <metadata
     id="metadata15">
    <rdf:RDF>
      <cc:Work
         rdf:about="">
        <dc:format>image/svg+xml</dc:format>
        <dc:type
           rdf:resource="http://purl.org/dc/dcmitype/StillImage" />
        <dc:title></dc:title>
      </cc:Work>
    </rdf:RDF>
  </metadata>
  <sodipodi:namedview
     pagecolor="#ffffff"
     bordercolor="#666666"
     borderopacity="1"
     objecttolerance="10"
     gridtolerance="10"
     guidetolerance="10"
     inkscape:pageopacity="0"
     inkscape:pageshadow="2"
     inkscape:window-width="820"
     inkscape:window-height="486"
     id="namedview13"
     showgrid="false"
     fit-margin-top="0"
     fit-margin-left="0"
     fit-margin-right="0"
     fit-margin-bottom="0"
     inkscape:zoom="21.454545"
     inkscape:cx="7.5139557"
     inkscape:cy="5.0162567"
     inkscape:window-x="55"
     inkscape:window-y="27"
     inkscape:window-maximized="0"
     inkscape:current-layer="svg11" />
  <defs
     id="defs3">
    <path
       id="yrn6a"
       d="m 80,348 -6,-7 -6,7"
       inkscape:connector-curvature="0" />
  </defs>
  <g
     id="g9"
     transform="translate(-0.48604429,-0.50008047)">
    <g
       transform="translate(-66,-339)"
       id="g7">
      <use
         stroke-miterlimit="50"
         xlink:href="#yrn6a"
         id="use5"
         style="fill:#ffffff;fill-opacity:0;stroke:#495057;stroke-width:3;stroke-linecap:round;stroke-linejoin:round;stroke-miterlimit:50"
         x="0"
         y="0"
         width="100%"
         height="100%" />
    </g>
  </g>
</svg>
